\relax 
\providecommand\hyper@newdestlabel[2]{}
\bbl@beforestart
\catcode `:\active 
\catcode `;\active 
\catcode `!\active 
\catcode `?\active 
\providecommand\HyperFirstAtBeginDocument{\AtBeginDocument}
\HyperFirstAtBeginDocument{\ifx\hyper@anchor\@undefined
\global\let\oldcontentsline\contentsline
\gdef\contentsline#1#2#3#4{\oldcontentsline{#1}{#2}{#3}}
\global\let\oldnewlabel\newlabel
\gdef\newlabel#1#2{\newlabelxx{#1}#2}
\gdef\newlabelxx#1#2#3#4#5#6{\oldnewlabel{#1}{{#2}{#3}}}
\AtEndDocument{\ifx\hyper@anchor\@undefined
\let\contentsline\oldcontentsline
\let\newlabel\oldnewlabel
\fi}
\fi}
\global\let\hyper@last\relax 
\gdef\HyperFirstAtBeginDocument#1{#1}
\providecommand\HyField@AuxAddToFields[1]{}
\providecommand\HyField@AuxAddToCoFields[2]{}
\babel@aux{french}{}
\@writefile{toc}{\contentsline {section}{\numberline {1}Import du cahier des charges :}{3}{section.1}\protected@file@percent }
\@writefile{toc}{\contentsline {section}{\numberline {2}Analyse}{22}{section.2}\protected@file@percent }
\@writefile{toc}{\contentsline {subsection}{\numberline {2.1}Rappel de l'objectif}{22}{subsection.2.1}\protected@file@percent }
\@writefile{toc}{\contentsline {paragraph}{Les joueurs}{22}{section*.2}\protected@file@percent }
\@writefile{toc}{\contentsline {paragraph}{Les propriétaires de salon}{22}{section*.3}\protected@file@percent }
\@writefile{toc}{\contentsline {paragraph}{Les administrateur}{22}{section*.4}\protected@file@percent }
\@writefile{lof}{\contentsline {figure}{\numberline {1}{\ignorespaces Diagramme de cas d'utilisation\relax }}{23}{figure.caption.5}\protected@file@percent }
\@writefile{toc}{\contentsline {subsubsection}{\numberline {2.1.1}Choix de plateforme : }{23}{subsubsection.2.1.1}\protected@file@percent }
\@writefile{toc}{\contentsline {paragraph}{}{23}{section*.6}\protected@file@percent }
\@writefile{toc}{\contentsline {subsection}{\numberline {2.2}Base de données}{23}{subsection.2.2}\protected@file@percent }
\@writefile{toc}{\contentsline {subsection}{\numberline {2.3}Système de base de données}{23}{subsection.2.3}\protected@file@percent }
\@writefile{toc}{\contentsline {subsection}{\numberline {2.4}Les documents}{24}{subsection.2.4}\protected@file@percent }
\@writefile{toc}{\contentsline {section}{\numberline {3}Conception}{27}{section.3}\protected@file@percent }
\@writefile{toc}{\contentsline {subsection}{\numberline {3.1}Les pages}{28}{subsection.3.1}\protected@file@percent }
\@writefile{toc}{\contentsline {paragraph}{Choix du pseudo}{28}{section*.7}\protected@file@percent }
\@writefile{toc}{\contentsline {paragraph}{Rejoindre un salon}{28}{section*.8}\protected@file@percent }
\@writefile{toc}{\contentsline {section}{\numberline {4}Codage}{28}{section.4}\protected@file@percent }
\@writefile{toc}{\contentsline {subsection}{\numberline {4.1}Les fichiers}{28}{subsection.4.1}\protected@file@percent }
\@writefile{toc}{\contentsline {paragraph}{}{28}{section*.9}\protected@file@percent }
\@writefile{toc}{\contentsline {subsection}{\numberline {4.2}Les modules}{28}{subsection.4.2}\protected@file@percent }
\@writefile{toc}{\contentsline {paragraph}{}{28}{section*.10}\protected@file@percent }
\@writefile{toc}{\contentsline {paragraph}{CSS}{28}{section*.11}\protected@file@percent }
\@writefile{toc}{\contentsline {subsection}{\numberline {4.3}Arborescence de fichiers}{29}{subsection.4.3}\protected@file@percent }
\@writefile{toc}{\contentsline {paragraph}{}{29}{section*.12}\protected@file@percent }
\@writefile{toc}{\contentsline {subsection}{\numberline {4.4}Gestion de versions}{31}{subsection.4.4}\protected@file@percent }
\@writefile{toc}{\contentsline {subsection}{\numberline {4.5}Gestion des tâche}{31}{subsection.4.5}\protected@file@percent }
\@writefile{toc}{\contentsline {section}{\numberline {5}Tests}{31}{section.5}\protected@file@percent }
\@writefile{toc}{\contentsline {subsection}{\numberline {5.1}Test unitaire et test d'intégration}{31}{subsection.5.1}\protected@file@percent }
\@writefile{toc}{\contentsline {subsection}{\numberline {5.2}Test fonctionnel}{31}{subsection.5.2}\protected@file@percent }
\@writefile{toc}{\contentsline {subsection}{\numberline {5.3}Test croisé}{31}{subsection.5.3}\protected@file@percent }
\@writefile{toc}{\contentsline {subsection}{\numberline {5.4}Les tests et git}{31}{subsection.5.4}\protected@file@percent }
\@writefile{toc}{\contentsline {section}{\numberline {6}Bilan}{32}{section.6}\protected@file@percent }
\@writefile{toc}{\contentsline {subsection}{\numberline {6.1}Maintenance du système}{32}{subsection.6.1}\protected@file@percent }
\@writefile{toc}{\contentsline {section}{\numberline {7}Conclusion}{32}{section.7}\protected@file@percent }
